//Tytul; Autorzy; Gatunek; Wydawnictwo; Data premiery; Rok wydania; Ilosc stron; Oprawa; Jezyk wydania
Nie odpuszczaj; Coben Harlan; Kryminal, sensacja, thriller; Wydawnictwo Albatros; 2018-10-03; 2018; 400; miekka; polski
Slepnac od swiatel; Zulczyk Jakub; Literatura piekna polska; Swiat Ksiazki; 2018-10-17; 2018; 520; miekka; polski
Kuba Wojewodzki. Nieautoryzowana autobiografia; Kuba Wojewodzki; Biografie i autobiografie; Wielka Litera; 2018-10-26; 2018; 488; miekka; polski
Anatomia gory. Osiem tysiecy metrow ponad marzeniami; Fronia Rafal; Literatura faktu, reportaz; Wydawnictwo SQN; 2018-07-04; 2018; 432; miekka; polski
Ogien i krew; Martin George R. R.; Fantasy; Wydawnictwo Zysk i S-ka; 2018-11-20; 2018; 600; twarda; polski
Stan Lee: The Man behind Marvel; Batchelor Bob; Biografie i autobiografie; Wydawnictwo SQN; 2018-11-14; 2018; 400; twarda; angielski
Becoming; Obama Michelle; Biografie i autobiografie; Agora; 2018-02-13; 2018; 500; twarda; angielski
Wzgorze psow; Zulczyk Jakub; Literatura piekna polska; Swiat Ksiazki; 2017-04-26; 2017; 864;miekka; polski
# to o nas; Piotr C.; Literatura obyczajowa; Novae Res; 2018-10-31; 2018; 416; twarda; polski
Ucho Igielne; Mysliwski Wieslaw;       Literatura piekna polska; Spoleczny Instytut Wydawniczy Znak            ; 2018-10-17; 2018; 448; twarda; polski
